lab01/simulation/qsim/lab01.msim.vcd
$comment
	File created using the following command:
		vcd file lab01.msim.vcd -direction
$end
$date
	Mon Mar 13 22:20:58 2023
$end
$version
	ModelSim Version 10.5b
$end
$timescale
	1ps
$end

$scope module lab01_vhd_vec_tst $end
$var wire 1 ! enable_sub $end
$var wire 1 " input0 [3] $end
$var wire 1 # input0 [2] $end
$var wire 1 $ input0 [1] $end
$var wire 1 % input0 [0] $end
$var wire 1 & input0_output [6] $end
$var wire 1 ' input0_output [5] $end
$var wire 1 ( input0_output [4] $end
$var wire 1 ) input0_output [3] $end
$var wire 1 * input0_output [2] $end
$var wire 1 + input0_output [1] $end
$var wire 1 , input0_output [0] $end
$var wire 1 - input1 [3] $end
$var wire 1 . input1 [2] $end
$var wire 1 / input1 [1] $end
$var wire 1 0 input1 [0] $end
$var wire 1 1 input1_output [6] $end
$var wire 1 2 input1_output [5] $end
$var wire 1 3 input1_output [4] $end
$var wire 1 4 input1_output [3] $end
$var wire 1 5 input1_output [2] $end
$var wire 1 6 input1_output [1] $end
$var wire 1 7 input1_output [0] $end
$var wire 1 8 output0 [6] $end
$var wire 1 9 output0 [5] $end
$var wire 1 : output0 [4] $end
$var wire 1 ; output0 [3] $end
$var wire 1 < output0 [2] $end
$var wire 1 = output0 [1] $end
$var wire 1 > output0 [0] $end
$var wire 1 ? output1 [6] $end
$var wire 1 @ output1 [5] $end
$var wire 1 A output1 [4] $end
$var wire 1 B output1 [3] $end
$var wire 1 C output1 [2] $end
$var wire 1 D output1 [1] $end
$var wire 1 E output1 [0] $end

$scope module i1 $end
$var wire 1 F gnd $end
$var wire 1 G vcc $end
$var wire 1 H unknown $end
$var wire 1 I devoe $end
$var wire 1 J devclrn $end
$var wire 1 K devpor $end
$var wire 1 L ww_devoe $end
$var wire 1 M ww_devclrn $end
$var wire 1 N ww_devpor $end
$var wire 1 O ww_input0 [3] $end
$var wire 1 P ww_input0 [2] $end
$var wire 1 Q ww_input0 [1] $end
$var wire 1 R ww_input0 [0] $end
$var wire 1 S ww_input1 [3] $end
$var wire 1 T ww_input1 [2] $end
$var wire 1 U ww_input1 [1] $end
$var wire 1 V ww_input1 [0] $end
$var wire 1 W ww_enable_sub $end
$var wire 1 X ww_input0_output [6] $end
$var wire 1 Y ww_input0_output [5] $end
$var wire 1 Z ww_input0_output [4] $end
$var wire 1 [ ww_input0_output [3] $end
$var wire 1 \ ww_input0_output [2] $end
$var wire 1 ] ww_input0_output [1] $end
$var wire 1 ^ ww_input0_output [0] $end
$var wire 1 _ ww_input1_output [6] $end
$var wire 1 ` ww_input1_output [5] $end
$var wire 1 a ww_input1_output [4] $end
$var wire 1 b ww_input1_output [3] $end
$var wire 1 c ww_input1_output [2] $end
$var wire 1 d ww_input1_output [1] $end
$var wire 1 e ww_input1_output [0] $end
$var wire 1 f ww_output0 [6] $end
$var wire 1 g ww_output0 [5] $end
$var wire 1 h ww_output0 [4] $end
$var wire 1 i ww_output0 [3] $end
$var wire 1 j ww_output0 [2] $end
$var wire 1 k ww_output0 [1] $end
$var wire 1 l ww_output0 [0] $end
$var wire 1 m ww_output1 [6] $end
$var wire 1 n ww_output1 [5] $end
$var wire 1 o ww_output1 [4] $end
$var wire 1 p ww_output1 [3] $end
$var wire 1 q ww_output1 [2] $end
$var wire 1 r ww_output1 [1] $end
$var wire 1 s ww_output1 [0] $end
$var wire 1 t \~QUARTUS_CREATED_ADC1~_CHSEL_bus\ [4] $end
$var wire 1 u \~QUARTUS_CREATED_ADC1~_CHSEL_bus\ [3] $end
$var wire 1 v \~QUARTUS_CREATED_ADC1~_CHSEL_bus\ [2] $end
$var wire 1 w \~QUARTUS_CREATED_ADC1~_CHSEL_bus\ [1] $end
$var wire 1 x \~QUARTUS_CREATED_ADC1~_CHSEL_bus\ [0] $end
$var wire 1 y \~QUARTUS_CREATED_ADC2~_CHSEL_bus\ [4] $end
$var wire 1 z \~QUARTUS_CREATED_ADC2~_CHSEL_bus\ [3] $end
$var wire 1 { \~QUARTUS_CREATED_ADC2~_CHSEL_bus\ [2] $end
$var wire 1 | \~QUARTUS_CREATED_ADC2~_CHSEL_bus\ [1] $end
$var wire 1 } \~QUARTUS_CREATED_ADC2~_CHSEL_bus\ [0] $end
$var wire 1 ~ \~QUARTUS_CREATED_GND~I_combout\ $end
$var wire 1 !! \~QUARTUS_CREATED_UNVM~~busy\ $end
$var wire 1 "! \~QUARTUS_CREATED_ADC1~~eoc\ $end
$var wire 1 #! \~QUARTUS_CREATED_ADC2~~eoc\ $end
$var wire 1 $! \input0_output[0]~output_o\ $end
$var wire 1 %! \input0_output[1]~output_o\ $end
$var wire 1 &! \input0_output[2]~output_o\ $end
$var wire 1 '! \input0_output[3]~output_o\ $end
$var wire 1 (! \input0_output[4]~output_o\ $end
$var wire 1 )! \input0_output[5]~output_o\ $end
$var wire 1 *! \input0_output[6]~output_o\ $end
$var wire 1 +! \input1_output[0]~output_o\ $end
$var wire 1 ,! \input1_output[1]~output_o\ $end
$var wire 1 -! \input1_output[2]~output_o\ $end
$var wire 1 .! \input1_output[3]~output_o\ $end
$var wire 1 /! \input1_output[4]~output_o\ $end
$var wire 1 0! \input1_output[5]~output_o\ $end
$var wire 1 1! \input1_output[6]~output_o\ $end
$var wire 1 2! \output0[0]~output_o\ $end
$var wire 1 3! \output0[1]~output_o\ $end
$var wire 1 4! \output0[2]~output_o\ $end
$var wire 1 5! \output0[3]~output_o\ $end
$var wire 1 6! \output0[4]~output_o\ $end
$var wire 1 7! \output0[5]~output_o\ $end
$var wire 1 8! \output0[6]~output_o\ $end
$var wire 1 9! \output1[0]~output_o\ $end
$var wire 1 :! \output1[1]~output_o\ $end
$var wire 1 ;! \output1[2]~output_o\ $end
$var wire 1 <! \output1[3]~output_o\ $end
$var wire 1 =! \output1[4]~output_o\ $end
$var wire 1 >! \output1[5]~output_o\ $end
$var wire 1 ?! \output1[6]~output_o\ $end
$var wire 1 @! \input0[0]~input_o\ $end
$var wire 1 A! \input0[2]~input_o\ $end
$var wire 1 B! \input0[3]~input_o\ $end
$var wire 1 C! \input0[1]~input_o\ $end
$var wire 1 D! \displayInput0|output[1]~0_combout\ $end
$var wire 1 E! \displayInput0|output[2]~1_combout\ $end
$var wire 1 F! \displayInput0|output[3]~2_combout\ $end
$var wire 1 G! \displayInput0|output[4]~3_combout\ $end
$var wire 1 H! \displayInput0|output[5]~4_combout\ $end
$var wire 1 I! \input1[3]~input_o\ $end
$var wire 1 J! \input1[0]~input_o\ $end
$var wire 1 K! \input1[1]~input_o\ $end
$var wire 1 L! \input1[2]~input_o\ $end
$var wire 1 M! \displayInput1|output[1]~0_combout\ $end
$var wire 1 N! \displayInput1|output[2]~1_combout\ $end
$var wire 1 O! \displayInput1|output[3]~2_combout\ $end
$var wire 1 P! \displayInput1|output[4]~3_combout\ $end
$var wire 1 Q! \displayInput1|output[5]~4_combout\ $end
$var wire 1 R! \enable_sub~input_o\ $end
$var wire 1 S! \inversorControlado|inversor_controlado1|output~combout\ $end
$var wire 1 T! \somador|s0|carry_out~0_combout\ $end
$var wire 1 U! \somador|s1|output~1_cout\ $end
$var wire 1 V! \somador|s1|output~2_combout\ $end
$var wire 1 W! \inversorControlado|inversor_controlado3|output~combout\ $end
$var wire 1 X! \inversorControlado|inversor_controlado2|output~combout\ $end
$var wire 1 Y! \somador|s1|output~3\ $end
$var wire 1 Z! \somador|s1|output~5\ $end
$var wire 1 [! \somador|s1|output~6_combout\ $end
$var wire 1 \! \somador|s0|output~0_combout\ $end
$var wire 1 ]! \somador|s1|output~4_combout\ $end
$var wire 1 ^! \displayOutput0|output[1]~0_combout\ $end
$var wire 1 _! \displayOutput0|output[2]~1_combout\ $end
$var wire 1 `! \displayOutput0|output[3]~2_combout\ $end
$var wire 1 a! \displayOutput0|output[4]~3_combout\ $end
$var wire 1 b! \displayOutput0|output[5]~4_combout\ $end
$var wire 1 c! \somador|s1|output~7\ $end
$var wire 1 d! \somador|s1|output~8_combout\ $end
$var wire 1 e! \displayInput0|output\ [6] $end
$var wire 1 f! \displayInput0|output\ [5] $end
$var wire 1 g! \displayInput0|output\ [4] $end
$var wire 1 h! \displayInput0|output\ [3] $end
$var wire 1 i! \displayInput0|output\ [2] $end
$var wire 1 j! \displayInput0|output\ [1] $end
$var wire 1 k! \displayInput0|output\ [0] $end
$var wire 1 l! \displayOutput0|output\ [6] $end
$var wire 1 m! \displayOutput0|output\ [5] $end
$var wire 1 n! \displayOutput0|output\ [4] $end
$var wire 1 o! \displayOutput0|output\ [3] $end
$var wire 1 p! \displayOutput0|output\ [2] $end
$var wire 1 q! \displayOutput0|output\ [1] $end
$var wire 1 r! \displayOutput0|output\ [0] $end
$var wire 1 s! \displayInput1|output\ [6] $end
$var wire 1 t! \displayInput1|output\ [5] $end
$var wire 1 u! \displayInput1|output\ [4] $end
$var wire 1 v! \displayInput1|output\ [3] $end
$var wire 1 w! \displayInput1|output\ [2] $end
$var wire 1 x! \displayInput1|output\ [1] $end
$var wire 1 y! \displayInput1|output\ [0] $end
$upscope $end
$upscope $end
$enddefinitions $end
#0
$dumpvars
1!
0F
1G
xH
1I
1J
1K
1L
1M
1N
1W
0~
z!!
z"!
z#!
0$!
0%!
0&!
0'!
0(!
0)!
1*!
0+!
0,!
0-!
0.!
0/!
00!
11!
02!
03!
04!
05!
06!
07!
18!
19!
0:!
0;!
1<!
1=!
1>!
1?!
0@!
0A!
0B!
0C!
0D!
0E!
0F!
0G!
0H!
0I!
0J!
0K!
0L!
0M!
0N!
0O!
0P!
0Q!
1R!
1S!
1T!
1U!
0V!
1W!
1X!
0Y!
1Z!
0[!
0\!
0]!
0^!
0_!
0`!
0a!
0b!
0c!
1d!
0"
0#
0$
0%
0-
0.
0/
00
1&
0'
0(
0)
0*
0+
0,
11
02
03
04
05
06
07
18
09
0:
0;
0<
0=
0>
1?
1@
1A
1B
0C
0D
1E
0O
0P
0Q
0R
0S
0T
0U
0V
1X
0Y
0Z
0[
0\
0]
0^
1_
0`
0a
0b
0c
0d
0e
1f
0g
0h
0i
0j
0k
0l
1m
1n
1o
1p
0q
0r
1s
1e!
xf!
xg!
xh!
xi!
xj!
0k!
1l!
xm!
xn!
xo!
xp!
xq!
0r!
1s!
xt!
xu!
xv!
xw!
xx!
0y!
0t
0u
0v
0w
0x
0y
0z
0{
0|
0}
$end
#5000
10
1V
1J!
1y!
1O!
1P!
1Q!
1\!
10!
1/!
1.!
1+!
1r!
1`!
1a!
1b!
1`
1a
1b
1e
17!
16!
15!
12!
17
14
13
12
1g
1h
1i
1l
1>
1;
1:
19
#10000
00
1/
0V
1U
1K!
0J!
0\!
0y!
1N!
0O!
0P!
0s!
1V!
01!
0/!
0.!
1-!
0+!
0r!
1_!
0`!
0a!
0l!
0_
0a
0b
1c
0e
08!
06!
05!
14!
02!
07
15
04
03
01
0f
0h
0i
1j
0l
0>
1<
0;
0:
08
#15000
10
1V
1J!
0N!
1P!
1\!
1/!
0-!
0_!
1a!
1a
0c
16!
04!
05
13
1h
0j
0<
1:
#20000
00
0/
1.
0V
0U
1T
1L!
0K!
0J!
0\!
0V!
1y!
1O!
0Q!
1]!
00!
1.!
1+!
1r!
1`!
0b!
0`
1b
1e
07!
15!
12!
17
14
02
0g
1i
1l
1>
1;
09
#25000
10
1V
1J!
0y!
1M!
0O!
1\!
0.!
1,!
0+!
0r!
1^!
0`!
0b
1d
0e
05!
13!
02!
07
16
04
0i
1k
0l
0>
1=
0;
#30000
00
1/
0V
1U
1K!
0J!
0\!
0P!
1V!
0/!
0a!
0a
06!
03
0h
0:
#35000
10
1V
1J!
0M!
1O!
1P!
1Q!
1s!
1\!
11!
10!
1/!
1.!
0,!
0^!
1`!
1a!
1b!
1l!
1_
1`
1a
1b
0d
18!
17!
16!
15!
03!
06
14
13
12
11
1f
1g
1h
1i
0k
0=
1;
1:
19
18
#40000
00
0/
0.
1-
0V
0U
0T
1S
1I!
0L!
0K!
0J!
0\!
0V!
0]!
0O!
0P!
0Q!
0s!
1[!
01!
00!
0/!
0.!
0`!
0a!
0b!
0l!
0_
0`
0a
0b
08!
07!
06!
05!
04
03
02
01
0f
0g
0h
0i
0;
0:
09
08
#45000
10
1V
1J!
1P!
1\!
1/!
1a!
1a
16!
13
1h
1:
#50000
00
1/
0V
1U
1K!
0J!
0\!
1O!
0P!
1V!
0/!
1.!
1`!
0a!
0a
1b
06!
15!
14
03
0h
1i
1;
0:
#55000
10
1V
1J!
1y!
1M!
0O!
1\!
0.!
1,!
1+!
1r!
1^!
0`!
0b
1d
1e
05!
13!
12!
17
16
04
0i
1k
1l
1>
1=
0;
#60000
00
0/
1.
0V
0U
1T
1L!
0K!
0J!
0\!
0V!
0y!
1N!
1s!
1]!
11!
1-!
0+!
0r!
1_!
1l!
1_
1c
0e
18!
14!
02!
07
15
11
1f
1j
0l
0>
1<
18
#65000
10
1V
1J!
1y!
0M!
0N!
1Q!
0s!
1\!
01!
10!
0-!
0,!
1+!
1r!
0^!
0_!
1b!
0l!
0_
1`
0c
0d
1e
08!
17!
04!
03!
12!
17
06
05
12
01
0f
1g
0j
0k
1l
1>
0=
0<
19
08
#70000
00
1/
0V
1U
1K!
0J!
0\!
0y!
1M!
1N!
0Q!
1V!
00!
1-!
1,!
0+!
0r!
1^!
1_!
0b!
0`
1c
1d
0e
07!
14!
13!
02!
07
16
15
02
0g
1j
1k
0l
0>
1=
1<
09
#75000
10
1V
1J!
1O!
1\!
1.!
1`!
1b
15!
14
1i
1;
#80000
00
0/
0.
0-
1%
0V
0U
0T
0S
1R
1@!
0I!
0L!
0K!
0J!
0V!
0]!
0M!
0N!
0O!
1s!
0[!
1k!
1F!
1G!
1H!
0T!
1)!
1(!
1'!
1$!
11!
0.!
0-!
0,!
0U!
1r!
0^!
0_!
1a!
1b!
1l!
1Y
1Z
1[
1^
1_
0b
0c
0d
18!
17!
16!
04!
03!
12!
1V!
1Y!
1,
1)
1(
1'
06
05
04
11
1f
1g
1h
0j
0k
1l
1]!
0Z!
0r!
0`!
0l!
1>
0=
0<
1:
19
18
08!
05!
02!
1[!
1c!
1`!
1l!
0f
0i
0l
18!
15!
0d!
1^!
1_!
0a!
0b!
0l!
0>
0;
08
1f
1i
08!
07!
06!
14!
13!
09!
0<!
0=!
0>!
1;
18
0f
0g
0h
1j
1k
0s
0p
0o
0n
1=
1<
0:
09
08
0E
0B
0A
0@
#85000
10
1V
1J!
1y!
1O!
1P!
1Q!
1T!
0\!
10!
1/!
1.!
1+!
0`!
1U!
1`
1a
1b
1e
05!
0V!
0Y!
17
14
13
12
0i
0]!
1Z!
1l!
0;
18!
0[!
0c!
0^!
0_!
0l!
1f
08!
04!
03!
1d!
1l!
18
0f
0j
0k
18!
19!
1<!
1=!
1>!
0=
0<
08
1f
1s
1p
1o
1n
18
1E
1B
1A
1@
#90000
00
1/
0V
1U
1K!
0J!
0T!
1\!
0y!
1N!
0O!
0P!
0s!
1V!
01!
0/!
0.!
1-!
0+!
1a!
1b!
0l!
0U!
0_
0a
0b
1c
0e
08!
17!
16!
0V!
07
15
04
03
01
0f
1g
1h
1r!
1`!
1l!
1:
19
08
18!
15!
12!
1f
1i
1l
1>
1;
18
#95000
10
1V
1J!
0N!
1P!
1T!
0\!
1/!
0-!
0r!
0`!
0a!
0b!
1U!
1a
0c
07!
06!
05!
02!
1V!
05
13
0g
0h
0i
0l
1_!
1b!
0l!
0>
0;
0:
09
08!
17!
14!
0f
1g
1j
1<
19
08
#100000
00
0/
1.
0V
0U
1T
1L!
0K!
0J!
0T!
1\!
0V!
1y!
1O!
0Q!
1]!
00!
1.!
1+!
1^!
0_!
1a!
0b!
0U!
0`
1b
1e
07!
16!
04!
13!
1V!
1Y!
17
14
02
0g
1h
0j
1k
0]!
0^!
1`!
1b!
1l!
1=
0<
1:
09
18!
17!
15!
03!
0`!
0l!
1f
1g
1i
0k
08!
05!
0=
1;
19
18
0f
0i
0;
08
#105000
10
1V
1J!
0y!
1M!
0O!
1T!
0\!
0.!
1,!
0+!
1_!
0a!
1U!
0b
1d
0e
06!
14!
0V!
0Y!
07
16
04
0h
1j
1]!
0_!
0b!
1l!
1<
0:
18!
07!
04!
1r!
1`!
1a!
0l!
1f
0g
0j
08!
16!
15!
12!
0<
09
18
0f
1h
1i
1l
1>
1;
1:
08
#110000
00
1/
0V
1U
1K!
0J!
0T!
1\!
0P!
1V!
0/!
0r!
1b!
1l!
0U!
0a
18!
17!
02!
0V!
03
1f
1g
0l
1^!
0`!
0b!
0l!
0>
19
18
08!
07!
05!
13!
0f
0g
0i
1k
1=
0;
09
08
#115000
10
1V
1J!
0M!
1O!
1P!
1Q!
1s!
1T!
0\!
11!
10!
1/!
1.!
0,!
1r!
0^!
1`!
1U!
1_
1`
1a
1b
0d
15!
03!
12!
1V!
06
14
13
12
11
1i
0k
1l
0r!
1^!
0`!
0a!
1>
0=
1;
06!
05!
13!
02!
0h
0i
1k
0l
0>
1=
0;
0:
#120000
00
0/
0.
1-
0V
0U
0T
1S
1I!
0L!
0K!
0J!
0T!
1\!
0V!
0]!
0O!
0P!
0Q!
0s!
1[!
01!
00!
0/!
0.!
0^!
1a!
0U!
0_
0`
0a
0b
16!
03!
1V!
1Y!
04
03
02
01
1h
0k
1]!
0Z!
1r!
1^!
0a!
0=
1:
06!
13!
12!
0[!
0r!
1_!
1`!
0h
1k
1l
15!
14!
02!
0^!
0_!
1a!
1b!
1l!
1>
1=
0:
1i
1j
0l
18!
17!
16!
04!
03!
0>
1<
1;
1f
1g
1h
0j
0k
0=
0<
1:
19
18
#125000
10
1V
1J!
1P!
1T!
0\!
1/!
1^!
0`!
0a!
0b!
0l!
1U!
1a
08!
07!
06!
05!
13!
0V!
0Y!
13
0f
0g
0h
0i
1k
0]!
1Z!
1r!
0^!
1`!
1a!
1=
0;
0:
09
08
16!
15!
03!
12!
1[!
0r!
0`!
0a!
1l!
1h
1i
0k
1l
18!
06!
05!
02!
0l!
1>
0=
1;
1:
1f
0h
0i
0l
08!
0>
0;
0:
18
0f
08
#130000
00
1/
0V
1U
1K!
0J!
0T!
1\!
1O!
0P!
1V!
0/!
1.!
1r!
1^!
0U!
0a
1b
13!
12!
0V!
14
03
1k
1l
0r!
0^!
1a!
1>
1=
16!
03!
02!
1h
0k
0l
0>
0=
1:
#135000
10
1V
1J!
1y!
1M!
0O!
1T!
0\!
0.!
1,!
1+!
0a!
1U!
0b
1d
1e
06!
1V!
17
16
04
0h
1`!
0:
15!
1i
1;
#140000
00
0/
1.
0V
0U
1T
1L!
0K!
0J!
0T!
1\!
0V!
0y!
1N!
1s!
1]!
11!
1-!
0+!
1r!
0`!
1b!
0U!
1_
1c
0e
17!
05!
12!
1V!
1Y!
07
15
11
1g
0i
1l
0]!
0r!
1^!
1_!
1`!
0b!
1>
0;
19
07!
15!
14!
13!
02!
1r!
0_!
0`!
0g
1i
1j
1k
0l
05!
04!
12!
0>
1=
1<
1;
09
0i
0j
1l
1>
0<
0;
#145000
10
1V
1J!
1y!
0M!
0N!
1Q!
0s!
1T!
0\!
01!
10!
0-!
0,!
1+!
0r!
0^!
1`!
1U!
0_
1`
0c
0d
1e
15!
03!
02!
0V!
0Y!
17
06
05
12
01
1i
0k
0l
1]!
0`!
0>
0=
1;
05!
1^!
1_!
1l!
0i
18!
14!
13!
0;
1f
1j
1k
1=
1<
18
#150000
00
1/
0V
1U
1K!
0J!
0T!
1\!
0y!
1M!
1N!
0Q!
1V!
00!
1-!
1,!
0+!
1`!
0l!
0U!
0`
1c
1d
0e
08!
15!
0V!
07
16
15
02
0f
1i
1r!
0^!
0_!
0`!
1b!
1;
08
17!
05!
04!
03!
12!
1g
0i
0j
0k
1l
1>
0=
0<
0;
19
#155000
10
1V
1J!
1O!
1T!
0\!
1.!
0r!
1^!
1_!
0b!
1l!
1U!
1b
18!
07!
14!
13!
02!
1V!
14
1f
0g
1j
1k
0l
0l!
0>
1=
1<
09
18
08!
0f
08
#160000
00
0/
0.
0-
0%
1$
0V
0U
0T
0S
0R
1Q
1C!
0@!
0I!
0L!
0K!
0J!
0V!
0]!
0M!
0N!
0O!
1s!
0[!
0k!
1E!
0F!
0G!
0e!
0S!
0*!
0(!
0'!
1&!
0$!
11!
0.!
0-!
0,!
1V!
1Y!
0^!
0_!
1l!
0X
0Z
0[
1\
0^
1_
0b
0c
0d
18!
04!
03!
1]!
0Z!
1_!
1b!
0l!
0,
1*
0)
0(
0&
06
05
04
11
1f
0j
0k
08!
17!
14!
1[!
1c!
1^!
0_!
0b!
0=
0<
18
0f
1g
1j
07!
04!
13!
0d!
1_!
1<
19
08
0g
0j
1k
14!
09!
0<!
0=!
0>!
1=
0<
09
1j
0s
0p
0o
0n
1<
0E
0B
0A
0@
#165000
10
1V
1J!
1y!
1O!
1P!
1Q!
1\!
10!
1/!
1.!
1+!
1`!
1`
1a
1b
1e
15!
17
14
13
12
1i
1;
#170000
00
1/
0V
1U
1K!
0J!
0\!
0y!
1N!
0O!
0P!
0s!
0V!
0Y!
01!
0/!
0.!
1-!
0+!
0]!
1Z!
0`!
1l!
0_
0a
0b
1c
0e
18!
05!
0[!
0c!
0^!
0_!
0l!
07
15
04
03
01
1f
0i
08!
04!
03!
1d!
1l!
0;
18
0f
0j
0k
18!
19!
1<!
1=!
1>!
0=
0<
08
1f
1s
1p
1o
1n
18
1E
1B
1A
1@
#175000
10
1V
1J!
0N!
1P!
1\!
1/!
0-!
1r!
1`!
1a!
1b!
1a
0c
17!
16!
15!
12!
05
13
1g
1h
1i
1l
1>
1;
1:
19
#180000
00
0/
1.
0V
0U
1T
1L!
0K!
0J!
0\!
1V!
1Y!
1y!
1O!
0Q!
1]!
00!
1.!
1+!
0]!
0r!
1^!
0`!
0a!
0b!
0l!
0`
1b
1e
08!
07!
06!
05!
13!
02!
0^!
1_!
1b!
17
14
02
0f
0g
0h
0i
1k
0l
17!
14!
03!
0>
1=
0;
0:
09
08
1g
1j
0k
0=
1<
19
#185000
10
1V
1J!
0y!
1M!
0O!
1\!
0.!
1,!
0+!
0_!
1a!
0b
1d
0e
16!
04!
07
16
04
1h
0j
0<
1:
#190000
00
1/
0V
1U
1K!
0J!
0\!
0P!
0V!
0Y!
0/!
1]!
0a!
0b!
1l!
0a
18!
07!
06!
1r!
1`!
1a!
0l!
03
1f
0g
0h
08!
16!
15!
12!
0:
09
18
0f
1h
1i
1l
1>
1;
1:
08
#195000
10
1V
1J!
0M!
1O!
1P!
1Q!
1s!
1\!
11!
10!
1/!
1.!
0,!
0r!
1^!
0`!
1_
1`
1a
1b
0d
05!
13!
02!
06
14
13
12
11
0i
1k
0l
0>
1=
0;
#200000
00
0/
0.
1-
0V
0U
0T
1S
1I!
0L!
0K!
0J!
0\!
1V!
1Y!
0]!
0O!
0P!
0Q!
0s!
1[!
01!
00!
0/!
0.!
1]!
0Z!
0^!
1`!
0a!
0_
0`
0a
0b
06!
15!
03!
0[!
1^!
1_!
0`!
04
03
02
01
0h
1i
0k
05!
14!
13!
0_!
0=
1;
0:
0i
1j
1k
04!
1=
1<
0;
0j
0<
#205000
10
1V
1J!
1P!
1\!
1/!
0^!
1`!
1a!
1b!
1l!
1a
18!
17!
16!
15!
03!
13
1f
1g
1h
1i
0k
0=
1;
1:
19
18
#210000
00
1/
0V
1U
1K!
0J!
0\!
1O!
0P!
0V!
0Y!
0/!
1.!
0]!
1Z!
1r!
0b!
0l!
0a
1b
08!
07!
12!
1[!
0r!
0`!
0a!
1l!
14
03
0f
0g
1l
18!
06!
05!
02!
0l!
1>
09
08
1f
0h
0i
0l
08!
0>
0;
0:
18
0f
08
#215000
10
1V
1J!
1y!
1M!
0O!
1\!
0.!
1,!
1+!
1a!
0b
1d
1e
16!
17
16
04
1h
1:
#220000
00
0/
1.
0V
0U
1T
1L!
0K!
0J!
0\!
1V!
1Y!
0y!
1N!
1s!
1]!
11!
1-!
0+!
0]!
1^!
1_!
0a!
1_
1c
0e
06!
14!
13!
0^!
0_!
1`!
07
15
11
0h
1j
1k
15!
04!
03!
1=
1<
0:
1i
0j
0k
0=
0<
1;
#225000
10
1V
1J!
1y!
0M!
0N!
1Q!
0s!
1\!
01!
10!
0-!
0,!
1+!
1r!
1^!
0`!
0_
1`
0c
0d
1e
05!
13!
12!
17
06
05
12
01
0i
1k
1l
1>
1=
0;
#230000
00
1/
0V
1U
1K!
0J!
0\!
0y!
1M!
1N!
0Q!
0V!
0Y!
00!
1-!
1,!
0+!
1]!
0r!
0^!
0`
1c
1d
0e
03!
02!
1^!
1_!
1l!
07
16
15
02
0k
0l
18!
14!
13!
0>
0=
1f
1j
1k
1=
1<
18
#235000
10
1V
1J!
1O!
1\!
1.!
1r!
0^!
0_!
1b!
0l!
1b
08!
17!
04!
03!
12!
14
0f
1g
0j
0k
1l
1>
0=
0<
19
08
#240000
00
0/
0.
0-
1%
0V
0U
0T
0S
1R
1@!
0I!
0L!
0K!
0J!
1V!
1Y!
0]!
0M!
0N!
0O!
1s!
0[!
0E!
1G!
0T!
1(!
0&!
11!
0.!
0-!
0,!
0U!
1]!
0Z!
0r!
1a!
1Z
0\
1_
0b
0c
0d
16!
02!
1[!
1c!
1`!
1l!
0V!
0*
1(
06
05
04
11
1h
0l
18!
15!
0d!
1r!
0`!
0a!
0l!
0>
1:
1f
1i
08!
06!
05!
12!
09!
0<!
0=!
0>!
1;
18
0f
0h
0i
1l
0s
0p
0o
0n
1>
0;
0:
08
0E
0B
0A
0@
#245000
10
1V
1J!
1y!
1O!
1P!
1Q!
1T!
0\!
10!
1/!
1.!
1+!
0r!
1^!
1_!
0b!
1l!
1U!
1`
1a
1b
1e
18!
07!
14!
13!
02!
1V!
17
14
13
12
1f
0g
1j
1k
0l
0l!
0>
1=
1<
09
18
08!
0f
08
#250000
00
1/
0V
1U
1K!
0J!
0T!
1\!
0y!
1N!
0O!
0P!
0s!
0V!
0Y!
01!
0/!
0.!
1-!
0+!
0]!
1Z!
1r!
0^!
0_!
1b!
0U!
0_
0a
0b
1c
0e
17!
04!
03!
12!
1V!
1Y!
0[!
0c!
0r!
1a!
0b!
07
15
04
03
01
1g
0j
0k
1l
07!
16!
02!
1d!
1]!
0Z!
1b!
1>
0=
0<
19
0g
1h
0l
17!
19!
1<!
1=!
1>!
1[!
1c!
1`!
1l!
0>
1:
09
1g
1s
1p
1o
1n
18!
15!
0d!
1^!
1_!
0a!
0b!
0l!
19
1E
1B
1A
1@
1f
1i
08!
07!
06!
14!
13!
09!
0<!
0=!
0>!
1;
18
0f
0g
0h
1j
1k
0s
0p
0o
0n
1=
1<
0:
09
08
0E
0B
0A
0@
#255000
10
1V
1J!
0N!
1P!
1T!
0\!
1/!
0-!
0`!
1U!
1a
0c
05!
0V!
0Y!
05
13
0i
0]!
1Z!
1l!
0;
18!
0[!
0c!
0^!
0_!
0l!
1f
08!
04!
03!
1d!
1l!
18
0f
0j
0k
18!
19!
1<!
1=!
1>!
0=
0<
08
1f
1s
1p
1o
1n
18
1E
1B
1A
1@
#260000
00
0/
1.
0V
0U
1T
1L!
0K!
0J!
0T!
1\!
1V!
1Y!
1y!
1O!
0Q!
1]!
00!
1.!
1+!
0]!
1`!
1a!
1b!
0U!
0`
1b
1e
17!
16!
15!
0V!
0`!
0l!
17
14
02
1g
1h
1i
08!
05!
1r!
1`!
1l!
1;
1:
19
0f
0i
18!
15!
12!
0;
08
1f
1i
1l
1>
1;
18
#265000
10
1V
1J!
0y!
1M!
0O!
1T!
0\!
0.!
1,!
0+!
0r!
0`!
0a!
0b!
1U!
0b
1d
0e
07!
06!
05!
02!
1V!
07
16
04
0g
0h
0i
0l
1_!
1b!
0l!
0>
0;
0:
09
08!
17!
14!
0f
1g
1j
1<
19
08
#270000
00
1/
0V
1U
1K!
0J!
0T!
1\!
0P!
0V!
0Y!
0/!
1]!
1r!
0_!
1`!
1a!
1l!
0U!
0a
18!
16!
15!
04!
12!
1V!
1Y!
0r!
1^!
0`!
0b!
0l!
03
1f
1h
1i
0j
1l
08!
07!
05!
13!
02!
0]!
0^!
1`!
1b!
1l!
1>
0<
1;
1:
18
0f
0g
0i
1k
0l
18!
17!
15!
03!
0`!
0l!
0>
1=
0;
09
08
1f
1g
1i
0k
08!
05!
0=
1;
19
18
0f
0i
0;
08
#275000
10
1V
1J!
0M!
1O!
1P!
1Q!
1s!
1T!
0\!
11!
10!
1/!
1.!
0,!
1_!
0a!
1U!
1_
1`
1a
1b
0d
06!
14!
0V!
0Y!
06
14
13
12
11
0h
1j
1]!
0_!
0b!
1l!
1<
0:
18!
07!
04!
1r!
1`!
1a!
0l!
1f
0g
0j
08!
16!
15!
12!
0<
09
18
0f
1h
1i
1l
1>
1;
1:
08
#280000
00
0/
0.
1-
0V
0U
0T
1S
1I!
0L!
0K!
0J!
0T!
1\!
1V!
1Y!
0]!
0O!
0P!
0Q!
0s!
1[!
01!
00!
0/!
0.!
1]!
0Z!
1^!
0`!
0a!
0U!
0_
0`
0a
0b
06!
05!
13!
0V!
0[!
0r!
1_!
1`!
04
03
02
01
0h
0i
1k
15!
14!
02!
0_!
0`!
1a!
1=
0;
0:
1i
1j
0l
16!
05!
04!
0>
1<
1;
1h
0i
0j
0<
0;
1:
#285000
10
1V
1J!
1P!
1T!
0\!
1/!
1r!
0^!
1`!
1U!
1a
15!
03!
12!
1V!
13
1i
0k
1l
0r!
1^!
0`!
0a!
1>
0=
1;
06!
05!
13!
02!
0h
0i
1k
0l
0>
1=
0;
0:
